#### 0x00 ####
0x31,0xFD,0xF7,0x21,0x72,0x00,0x22,0x08,
 0xF9,0xED,0x56,0xFB,0x3E,0x4D,0xD3,0x01,
 0x00,0x00,0x3E,0x37,0xD3,0x01,0xC3,0x6A,
 0x00,0x00,0x00,0x00,0x00,0x00,0x00,0x00,
 0x00,0x00,0x00,0x00,0x00,0x00,0x00,0x00,
 0x00,0x00,0x00,0x00,0x00,0x00,0x00,0x00,
 0x00,0x00,0x00,0x00,0x00,0x00,0x00,0x00,
 0x2A,0x08,0xF9,0xE9,0xF5,0xDB,0x01,0xE6,
 0x01,0xCA,0x3D,0x00,0xF1,0xD3,0x00,0xC9,
 0x3E,0x37,0xD3,0x01,0xDB,0x01,0xE6,0x02,
 0xCA,0x4C,0x00,0xDB,0x00,0xC9,0x00,0x00,
 0x00,0x00,0x00,0x00,0x00,0x00,0x00,0x00,
 0x00,0x00,0x00,0x00,0x00,0x00,0x2A,0x0A,
 0xF9,0xE9,0x21,0x8C,0x0A,0x06,0x39,0xCD,
 0xBA,0x01,0xCD,0xC1,0x00,0xCD,0x48,0x00,
 0xFE,0x53,0xCC,0x9E,0x07,0xFE,0x4C,0xCA,
 0x32,0x09,0xFE,0x41,0xCA,0x4B,0x02,0xFE,
 0x47,0xCA,0xE7,0x08,0xFE,0x45,0xCA,0x70,
 0x08,0xFE,0x4D,0xCA,0x72,0x06,0xFE,0x48,
 0xCA,0xCA,0x00,0xFE,0x57,0xCA,0x6A,0x00,
 0xFE,0x55,0xCA,0xDD,0x00,0xFE,0x44,0xCA,
 0x51,0x04,0xFE,0x46,0xCA,0x06,0x07,0xFE,
 0x58,0xCA,0xC2,0x01,0x3E,0x0A,0xCD,0x3C,
 0x00,0x3E,0x0D,0xCD,0x3C,0x00,0xC3,0x72,
 0x00,0x21,0xFF,0x0A,0x06,0x06,0xCD,0xBA,
 0x01,0xC9,0x21,0x04,0x0B,0x01,0x6E,0x00,
 0x7E,0xCD,0x3C,0x00,0x23,0x0B,0x78,0xB1,
 0x20,0xF6,0xC3,0x72,0x00,0x3E,0x0A,0xCD,
 0x3C,0x00,0x3E,0x0D,0xCD,0x3C,0x00,0x21,
 0xEB,0x0B,0x06,0x0E,0xCD,0xBA,0x01,0x21,
 0x3C,0x00,0x7C,0xCD,0x3A,0x0A,0x7D,0xCD,
 0x3A,0x0A,0x3E,0x0A,0xCD,0x3C,0x00,0x3E,
 0x0D,0xCD,0x3C,0x00,0x21,0xDD,0x0B,0x06,
 0x0E,0xCD,0xBA,0x01,0x21,0x48,0x00,0x7C,
 0xCD,0x3A,0x0A,0x7D,0xCD,0x3A,0x0A,0x3E,
 0x0A,0xCD,0x3C,0x00,0x3E,0x0D,0xCD,0x3C,
 0x00,0x21,0xCF,0x0B,0x06,0x0E,0xCD,0xBA,
 0x01,0x21,0xE8,0x07,0x7C,0xCD,0x3A,0x0A,
 0x7D,0xCD,0x3A,0x0A,0x21,0xC0,0x0B,0x06,
 0x0F,0xCD,0xBA,0x01,0x21,0xB2,0x0B,0x06,
 0x0E,0xCD,0xBA,0x01,0x21,0x11,0x08,0x7C,
 0xCD,0x3A,0x0A,0x7D,0xCD,0x3A,0x0A,0x21,
 0xA8,0x0B,0x06,0x0A,0xCD,0xBA,0x01,0x21,
 0x9A,0x0B,0x06,0x0E,0xCD,0xBA,0x01,0x21,
 0x3A,0x0A,0x7C,0xCD,0x3A,0x0A,0x7D,0xCD,
 0x3A,0x0A,0x21,0x8E,0x0B,0x06,0x0C,0xCD,
 0xBA,0x01,0x21,0x80,0x0B,0x06,0x0E,0xCD,
 0xBA,0x01,0x21,0x72,0x00,0x7C,0xCD,0x3A,
 0x0A,0x7D,0xCD,0x3A,0x0A,0x3E,0x0A,0xCD,
 0x3C,0x00,0x3E,0x0D,0xCD,0x3C,0x00,0x21,
 0x72,0x0B,0x06,0x0E,0xCD,0xBA,0x01,0x21,
 0xAF,0x01,0x7C,0xCD,0x3A,0x0A,0x7D,0xCD,
 0x3A,0x0A,0x3E,0x0A,0xCD,0x3C,0x00,0x3E,
 0x0D,0xCD,0x3C,0x00,0xC3,0x72,0x00,0xD5,
 0x11,0x10,0x00,0x1B,0x7A,0xB3,0x20,0xFB,
 0xD1,0xC9,0x7E,0xCD,0x3C,0x00,0x23,0x10,
 0xF9,0xC9,0x3E,0x58,0xCD,0x3C,0x00,0x3E,
 0x2D,0xCD,0x3C,0x00,0x3E,0x24,0xCD,0x3C,
 0x00,0x3E,0x3F,0xCD,0x3C,0x00,0x3E,0x08,
 0xCD,0x3C,0x00,0xCD,0xE8,0x07,0x2A,0x43,
 0xFF,0x11,0x0F,0x00,0x3E,0x0D,0xCD,0x3C,
 0x00,0x3E,0x0A,0xCD,0x3C,0x00,0x7C,0xCD,
 0x3A,0x0A,0x7D,0xCD,0x3A,0x0A,0x3E,0x3A,
 0xCD,0x3C,0x00,0x3E,0x20,0xCD,0x3C,0x00,
 0x3E,0x20,0xCD,0x3C,0x00,0x06,0x08,0x7E,
 0xCD,0x3A,0x0A,0x3E,0x20,0xCD,0x3C,0x00,
 0x23,0x10,0xF4,0x3E,0x20,0xCD,0x3C,0x00,
 0x3E,0x20,0xCD,0x3C,0x00,0x3E,0x20,0xCD,
 0x3C,0x00,0x06,0x08,0x7E,0xCD,0x3A,0x0A,
 0x3E,0x20,0xCD,0x3C,0x00,0x23,0x10,0xF4,
 0x1B,0x7A,0xB3,0xC2,0xE4,0x01,0xCD,0x48,
 0x00,0xFE,0x1B,0xCA,0x72,0x00,0xFE,0x0D,
 0xCA,0xE1,0x01,0xFE,0x20,0xCA,0xE1,0x01,
 0xC3,0x36,0x02,0x3E,0x00,0x32,0xB0,0xFF,
 0x3E,0x00,0x32,0xB2,0xFF,0x3E,0x41,0xCD,
 0x3C,0x00,0x3E,0x2D,0xCD,0x3C,0x00,0x3E,
 0x24,0xCD,0x3C,0x00,0x3E,0x3F,0xCD,0x3C,
 0x00,0x3E,0x08,0xCD,0x3C,0x00,0xCD,0xE8,
 0x07,0x2A,0x43,0xFF,0x22,0xA4,0xFF,0x21,
 0xD3,0x03,0x06,0x0E,0xCD,0xBA,0x01,0x3E,
 0x0D,0xCD,0x3C,0x00,0x3E,0x0A,0xCD,0x3C,
 0x00,0x3E,0x0A,0xCD,0x3C,0x00,0x3E,0x0D,
 0xCD,0x3C,0x00,0x2A,0xA4,0xFF,0x7C,0xCD,
 0x3A,0x0A,0x7D,0xCD,0x3A,0x0A,0x3E,0x20,
 0xCD,0x3C,0x00,0x3E,0x20,0xCD,0x3C,0x00,
 0x01,0x01,0x00,0xED,0x43,0xA0,0xFF,0xCD,
 0xA8,0x03,0x21,0x60,0xFF,0x06,0x0F,0xCD,
 0x48,0x00,0xFE,0x0D,0xCA,0xEE,0x02,0xFE,
 0x1B,0xCA,0x72,0x00,0xFE,0x08,0xCA,0xDA,
 0x02,0xCD,0x3C,0x00,0xFE,0x23,0xCC,0x9A,
 0x03,0xFE,0x24,0xCC,0xA1,0x03,0x77,0x23,
 0x10,0xDD,0x3E,0x08,0xCD,0x3C,0x00,0x3E,
 0x20,0xCD,0x3C,0x00,0x3E,0x08,0xCD,0x3C,
 0x00,0x2B,0x04,0xC3,0xB7,0x02,0x3E,0x0F,
 0x90,0x32,0xA0,0xFF,0x3E,0x00,0x32,0xA1,
 0xFF,0xC3,0xFC,0x02,0xCD,0xE1,0x03,0x3E,
 0x20,0xCD,0x3C,0x00,0x3E,0x20,0xCD,0x3C,
 0x00,0x11,0x80,0xFF,0x2A,0xA2,0xFF,0x7E,
 0x47,0x0E,0x00,0x23,0x7E,0x12,0x23,0x13,
 0x0C,0x10,0xF9,0x3A,0xB2,0xFF,0xFE,0x23,
 0xCC,0x86,0x03,0xFE,0x24,0xCC,0x8D,0x03,
 0x79,0x32,0xB3,0xFF,0x3A,0xB2,0xFF,0xFE,
 0x00,0xC2,0x43,0x03,0x3E,0x20,0xCD,0x3C,
 0x00,0x3E,0x20,0xCD,0x3C,0x00,0x3E,0x09,
 0xCD,0x3C,0x00,0x3E,0x20,0xCD,0x3C,0x00,
 0x3E,0x09,0xCD,0x3C,0x00,0x21,0x80,0xFF,
 0x41,0x3E,0x20,0xCD,0x3C,0x00,0x3E,0x3A,
 0xCD,0x3C,0x00,0x7E,0xCD,0x3A,0x0A,0x3E,
 0x20,0xCD,0x3C,0x00,0x23,0x10,0xF4,0x2A,
 0xA4,0xFF,0x22,0xA6,0xFF,0x06,0x00,0x09,
 0x22,0xA4,0xFF,0x3A,0xB3,0xFF,0x47,0x2A,
 0xA6,0xFF,0x11,0x80,0xFF,0x1A,0x77,0x23,
 0x13,0x10,0xFA,0xC3,0x89,0x02,0x3A,0x42,
 0xFF,0x12,0x13,0x0C,0xC9,0x3A,0x43,0xFF,
 0x12,0x13,0x0C,0x3A,0x44,0xFF,0x12,0x13,
 0x0C,0xC9,0x32,0xB2,0xFF,0xCD,0x11,0x08,
 0xC9,0x32,0xB2,0xFF,0xCD,0xE8,0x07,0xC9,
 0x21,0x60,0xFF,0x06,0x0F,0x3E,0x00,0x77,
 0x23,0x10,0xFA,0x21,0x80,0xFF,0x06,0x0F,
 0x3E,0x00,0x77,0x23,0x10,0xFA,0x3E,0x00,
 0x32,0xA0,0xFF,0x32,0xA1,0xFF,0x32,0xB0,
 0xFF,0x32,0xB2,0xFF,0x32,0xB3,0xFF,0x32,
 0xB4,0xFF,0xC9,0x0A,0x0D,0x41,0x73,0x73,
 0x65,0x6D,0x62,0x6C,0x65,0x72,0x3A,0x0A,
 0x0D,0xF5,0xE5,0xD5,0xC5,0x21,0xF9,0x0B,
 0x22,0xA2,0xFF,0x2A,0xA2,0xFF,0x11,0x60,
 0xFF,0xED,0x4B,0xA0,0xFF,0x1A,0xBE,0xC2,
 0x05,0x04,0x23,0x13,0x0B,0x78,0xB1,0xC2,
 0xF5,0x03,0xC3,0x20,0x04,0x2A,0xA2,0xFF,
 0x23,0xE5,0xD5,0x21,0x80,0x1F,0xED,0x5B,
 0xA2,0xFF,0xB7,0xED,0x52,0xCA,0x28,0x04,
 0xD1,0xE1,0x22,0xA2,0xFF,0xC3,0xEB,0x03,
 0x22,0xA2,0xFF,0xC1,0xD1,0xE1,0xF1,0xC9,
 0x3E,0x0D,0xCD,0x3C,0x00,0x3E,0x0A,0xCD,
 0x3C,0x00,0x06,0x0E,0x21,0x43,0x04,0x7E,
 0xCD,0x3C,0x00,0x23,0x10,0xF9,0xD1,0xE1,
 0xC3,0x89,0x02,0x53,0x79,0x6E,0x74,0x61,
 0x78,0x20,0x65,0x72,0x72,0x6F,0x72,0x20,
 0x21,0x21,0x60,0x04,0x06,0x18,0x7E,0xCD,
 0x3C,0x00,0x23,0x10,0xF9,0xC3,0x78,0x04,
 0x0A,0x0D,0x44,0x69,0x73,0x61,0x73,0x73,
 0x65,0x6D,0x62,0x6C,0x79,0x20,0x6C,0x69,
 0x73,0x74,0x69,0x6E,0x67,0x3A,0x0A,0x0D,
 0x3E,0x00,0x32,0xA0,0xFF,0x32,0xA1,0xFF,
 0x32,0xB0,0xFF,0x32,0xB2,0xFF,0x32,0xB3,
 0xFF,0x32,0xB4,0xFF,0x32,0xC0,0xFF,0x32,
 0xC2,0xFF,0x32,0xE0,0xFF,0x32,0x00,0xF9,
 0x32,0x01,0xF9,0x3E,0x44,0xCD,0x3C,0x00,
 0x3E,0x2D,0xCD,0x3C,0x00,0x3E,0x24,0xCD,
 0x3C,0x00,0x3E,0x3F,0xCD,0x3C,0x00,0x3E,
 0x08,0xCD,0x3C,0x00,0xCD,0xE8,0x07,0x2A,
 0x43,0xFF,0x3E,0x3A,0xCD,0x3C,0x00,0x2A,
 0x43,0xFF,0x22,0x00,0xF9,0x3E,0x10,0x32,
 0x02,0xF9,0x3E,0x00,0x32,0xA0,0xFF,0x32,
 0xA1,0xFF,0x32,0xB0,0xFF,0x32,0xB2,0xFF,
 0x32,0xB3,0xFF,0x32,0xB4,0xFF,0x32,0xC0,
 0xFF,0x32,0xC2,0xFF,0x32,0xE0,0xFF,0x2A,
 0x00,0xF9,0x22,0xD0,0xFF,0x21,0x01,0x00,
 0x22,0xA0,0xFF,0x21,0xF9,0x0B,0xED,0x5B,
 0xD0,0xFF,0x1A,0xFE,0xED,0xCA,0x22,0x05,
 0xFE,0xCB,0xCA,0x22,0x05,0xFE,0xDD,0xCA,
 0x22,0x05,0xFE,0xFD,0xCA,0x22,0x05,0xBE,
 0xCA,0x17,0x05,0x23,0xC3,0xFA,0x04,0x23,
 0x3E,0xFF,0xBE,0xC2,0x14,0x05,0x2B,0xC3,
 0x99,0x05,0x21,0x0B,0x16,0x22,0xA2,0xFF,
 0x2A,0xA2,0xFF,0xED,0x5B,0xD0,0xFF,0x01,
 0x02,0x00,0x1A,0xBE,0xC2,0x42,0x05,0x23,
 0x13,0x0B,0x78,0xB1,0xC2,0x32,0x05,0xC3,
 0x93,0x05,0x2A,0xA2,0xFF,0x23,0xE5,0xD5,
 0x21,0x80,0x1F,0xED,0x5B,0xA2,0xFF,0xB7,
 0xED,0x52,0xCA,0x5D,0x05,0xD1,0xE1,0x22,
 0xA2,0xFF,0xC3,0x28,0x05,0x3E,0x0A,0xCD,
 0x3C,0x00,0x3E,0x0D,0xCD,0x3C,0x00,0x2A,
 0xD0,0xFF,0x7C,0xCD,0x3A,0x0A,0x7D,0xCD,
 0x3A,0x0A,0x3E,0x20,0xCD,0x3C,0x00,0x3E,
 0x20,0xCD,0x3C,0x00,0x3E,0x2A,0xCD,0x3C,
 0x00,0x3E,0x2A,0xCD,0x3C,0x00,0x3E,0x2A,
 0xCD,0x3C,0x00,0x23,0x23,0x22,0x00,0xF9,
 0xC3,0xE7,0x04,0x2A,0xA2,0xFF,0x22,0xD2,
 0xFF,0x22,0xD2,0xFF,0x3E,0x0A,0xCD,0x3C,
 0x00,0x3E,0x0D,0xCD,0x3C,0x00,0x2A,0xD2,
 0xFF,0x2B,0x7E,0x32,0xC2,0xFF,0x2B,0x22,
 0xD6,0xFF,0x2B,0x7E,0xFE,0x5F,0x20,0xFA,
 0x23,0x22,0xD4,0xFF,0x3A,0xC2,0xFF,0x47,
 0x2A,0xD0,0xFF,0x23,0x10,0xFD,0x22,0xD8,
 0xFF,0x3E,0x0D,0xCD,0x3C,0x00,0x3E,0x0D,
 0xCD,0x3C,0x00,0x2A,0xD4,0xFF,0x54,0x5D,
 0x2A,0xD6,0xFF,0xB7,0xED,0x52,0x22,0xDA,
 0xFF,0x3A,0xDA,0xFF,0x2A,0xD0,0xFF,0x7C,
 0xCD,0x3A,0x0A,0x7D,0xCD,0x3A,0x0A,0x3E,
 0x20,0xCD,0x3C,0x00,0x3E,0x20,0xCD,0x3C,
 0x00,0x3A,0xDA,0xFF,0x2A,0xD4,0xFF,0x47,
 0x04,0x7E,0xFE,0x23,0xCA,0x40,0x06,0xFE,
 0x24,0xCA,0x56,0x06,0xCD,0x3C,0x00,0x23,
 0x10,0xEF,0x2A,0x00,0xF9,0x3A,0xC2,0xFF,
 0x47,0x3A,0xE0,0xFF,0x80,0x11,0x00,0x00,
 0x5F,0x19,0x22,0x00,0xF9,0x3A,0x02,0xF9,
 0x3D,0xCA,0x32,0x06,0x32,0x02,0xF9,0xC3,
 0xCA,0x04,0xCD,0x48,0x00,0xFE,0x1B,0xCA,
 0x72,0x00,0xC3,0xC5,0x04,0xC3,0x32,0x06,
 0x3E,0x01,0x32,0xE0,0xFF,0x3E,0x23,0xCD,
 0x3C,0x00,0xE5,0x2A,0xD8,0xFF,0x7E,0xCD,
 0x3A,0x0A,0xE1,0xC3,0x0F,0x06,0x3E,0x02,
 0x32,0xE0,0xFF,0x3E,0x24,0xCD,0x3C,0x00,
 0xE5,0x2A,0xD8,0xFF,0x23,0x7E,0xCD,0x3A,
 0x0A,0x2B,0x7E,0xCD,0x3A,0x0A,0xE1,0xC3,
 0x0F,0x06,0xCD,0x94,0x06,0xE5,0xCD,0xA3,
 0x06,0xD5,0xCD,0xB3,0x06,0xD1,0xE1,0x7E,
 0x12,0x23,0x13,0x0B,0x78,0xB1,0xC2,0x7F,
 0x06,0x21,0xF3,0x06,0x06,0x13,0xCD,0xBA,
 0x01,0xC3,0x72,0x00,0x21,0xC4,0x06,0x06,
 0x11,0xCD,0xBA,0x01,0xCD,0xE8,0x07,0x2A,
 0x43,0xFF,0xC9,0x21,0xD5,0x06,0x06,0x12,
 0xCD,0xBA,0x01,0xCD,0xE8,0x07,0x2A,0x43,
 0xFF,0xEB,0xC9,0x21,0xE7,0x06,0x06,0x0C,
 0xCD,0xBA,0x01,0xCD,0xE8,0x07,0x2A,0x43,
 0xFF,0x44,0x4D,0xC9,0x0A,0x0D,0x4D,0x6F,
 0x76,0x65,0x20,0x53,0x6F,0x75,0x72,0x63,
 0x65,0x20,0x24,0x3F,0x08,0x14,0x20,0x44,
 0x65,0x73,0x74,0x69,0x6E,0x61,0x74,0x69,
 0x6F,0x6E,0x20,0x20,0x24,0x3F,0x08,0x14,
 0x20,0x4C,0x65,0x6E,0x67,0x68,0x74,0x20,
 0x24,0x3F,0x08,0x0A,0x0D,0x4D,0x6F,0x76,
 0x65,0x20,0x63,0x6F,0x6D,0x70,0x6C,0x65,
 0x74,0x65,0x20,0x21,0x0A,0x0D,0xCD,0x27,
 0x07,0xE5,0xCD,0x36,0x07,0xD5,0xCD,0x46,
 0x07,0xD1,0xE1,0x79,0x77,0x23,0x1B,0x7A,
 0xB3,0xC2,0x13,0x07,0x21,0x8B,0x07,0x06,
 0x13,0xCD,0xBA,0x01,0xC3,0x72,0x00,0x21,
 0x56,0x07,0x06,0x11,0xCD,0xBA,0x01,0xCD,
 0xE8,0x07,0x2A,0x43,0xFF,0xC9,0x21,0x67,
 0x07,0x06,0x12,0xCD,0xBA,0x01,0xCD,0xE8,
 0x07,0x2A,0x43,0xFF,0xEB,0xC9,0x21,0x79,
 0x07,0x06,0x12,0xCD,0xBA,0x01,0xCD,0x11,
 0x08,0x3A,0x42,0xFF,0x4F,0xC9,0x0A,0x0D,
 0x53,0x74,0x61,0x72,0x74,0x20,0x61,0x64,
 0x72,0x2E,0x20,0x3A,0x24,0x3F,0x08,0x14,
 0x20,0x4C,0x65,0x6E,0x67,0x68,0x74,0x20,
 0x20,0x20,0x20,0x20,0x20,0x20,0x24,0x3F,
 0x08,0x14,0x20,0x46,0x69,0x6C,0x6C,0x20,
 0x77,0x69,0x74,0x68,0x20,0x20,0x20,0x20,
 0x23,0x3F,0x08,0x0A,0x0D,0x46,0x69,0x6C,
 0x6C,0x20,0x63,0x6F,0x6D,0x70,0x6C,0x65,
 0x74,0x65,0x20,0x21,0x0A,0x0D,0xCD,0xAC,
 0x07,0xE5,0xCD,0xBB,0x07,0xE1,0xCD,0xBC,
 0x09,0xC3,0x72,0x00,0x21,0xCE,0x07,0x06,
 0x0B,0xCD,0xBA,0x01,0xCD,0xE8,0x07,0x2A,
 0x43,0xFF,0xC9,0x21,0xDB,0x07,0x06,0x0B,
 0xCD,0xBA,0x01,0xCD,0xE8,0x07,0x11,0x00,
 0x00,0x2A,0x43,0xFF,0xEB,0xC9,0x0A,0x0D,
 0x53,0x2D,0x53,0x74,0x61,0x72,0x74,0x20,
 0x24,0x3F,0x08,0x0A,0x0D,0x53,0x2D,0x45,
 0x6E,0x64,0x20,0x20,0x20,0x24,0x3F,0x08,
 0xF5,0xE5,0xC5,0xD5,0x21,0x20,0xFF,0x06,
 0x04,0xCD,0x48,0x00,0xFE,0x1B,0xCA,0x72,
 0x00,0xC3,0x55,0x08,0x77,0x23,0xCD,0x3C,
 0x00,0x10,0xEE,0xCD,0x07,0x09,0x2A,0x40,
 0xFF,0x22,0x43,0xFF,0xD1,0xC1,0xE1,0xF1,
 0xC9,0xF5,0xE5,0xC5,0xD5,0x21,0x22,0xFF,
 0x06,0x02,0xCD,0x48,0x00,0xFE,0x1B,0xCA,
 0x72,0x00,0xC3,0x3A,0x08,0x77,0x23,0xCD,
 0x3C,0x00,0x10,0xEE,0xCD,0x11,0x09,0x3A,
 0x40,0xFF,0x32,0x42,0xFF,0xD1,0xC1,0xE1,
 0xF1,0xC9,0xE5,0xF5,0xC5,0x21,0x66,0x0A,
 0x06,0x10,0xBE,0xCA,0x4F,0x08,0x23,0x10,
 0xF9,0xC1,0xF1,0xE1,0xC3,0x1A,0x08,0xC1,
 0xF1,0xE1,0xC3,0x25,0x08,0xE5,0xF5,0xC5,
 0x21,0x66,0x0A,0x06,0x10,0xBE,0xCA,0x6A,
 0x08,0x23,0x10,0xF9,0xC1,0xF1,0xE1,0xC3,
 0xF1,0x07,0xC1,0xF1,0xE1,0xC3,0xFC,0x07,
 0x21,0xD9,0x08,0x06,0x0E,0xCD,0xBA,0x01,
 0xCD,0xE8,0x07,0x3E,0x0A,0xCD,0x3C,0x00,
 0x3E,0x0D,0xCD,0x3C,0x00,0x2A,0x43,0xFF,
 0x22,0x06,0xF9,0x3E,0x0A,0xCD,0x3C,0x00,
 0x3E,0x0D,0xCD,0x3C,0x00,0x3E,0x45,0xCD,
 0x3C,0x00,0x3E,0x2D,0xCD,0x3C,0x00,0x2A,
 0x06,0xF9,0x7C,0xCD,0x3A,0x0A,0x7D,0xCD,
 0x3A,0x0A,0x3E,0x3A,0xCD,0x3C,0x00,0x3E,
 0x20,0xCD,0x3C,0x00,0x7E,0xCD,0x3A,0x0A,
 0x3E,0x08,0xCD,0x3C,0x00,0x3E,0x08,0xCD,
 0x3C,0x00,0xCD,0x11,0x08,0xCD,0xAF,0x01,
 0x3A,0x42,0xFF,0x2A,0x06,0xF9,0x77,0x23,
 0x22,0x06,0xF9,0xC3,0x8B,0x08,0xC3,0xCF,
 0x08,0x45,0x64,0x69,0x74,0x20,0x6D,0x65,
 0x6D,0x6F,0x72,0x79,0x20,0x3A,0x24,0x3E,
 0x47,0xCD,0x3C,0x00,0x3E,0x2D,0xCD,0x3C,
 0x00,0x3E,0x24,0xCD,0x3C,0x00,0x3E,0x3F,
 0xCD,0x3C,0x00,0x3E,0x08,0xCD,0x3C,0x00,
 0xCD,0xE8,0x07,0x2A,0x43,0xFF,0xE9,0x21,
 0x1F,0xFF,0x7E,0xCD,0x1C,0x09,0x32,0x41,
 0xFF,0x21,0x21,0xFF,0x7E,0xCD,0x1C,0x09,
 0x32,0x40,0xFF,0xC9,0x16,0x00,0xCD,0x26,
 0x09,0x87,0x87,0x87,0x87,0x57,0x23,0x7E,
 0xD6,0x30,0xFE,0x0A,0x38,0x02,0xD6,0x07,
 0xB2,0xC9,0x21,0xF0,0x0A,0x06,0x0F,0xCD,
 0xBA,0x01,0xCD,0x67,0x09,0x21,0xE1,0x0A,
 0x06,0x0F,0xCD,0xBA,0x01,0x3E,0x24,0xCD,
 0x3C,0x00,0x2A,0x50,0xFF,0x7C,0xCD,0x3A,
 0x0A,0x7D,0xCD,0x3A,0x0A,0x3E,0x0A,0xCD,
 0x3C,0x00,0x3E,0x0D,0xCD,0x3C,0x00,0x3E,
 0x07,0xCD,0x3C,0x00,0xC3,0x72,0x00,0x3E,
 0x00,0x32,0x4B,0xFF,0xCD,0x48,0x00,0xCD,
 0x3C,0x00,0xFE,0x1B,0xC8,0xFE,0x3A,0x20,
 0xF3,0xCD,0xA5,0x09,0x47,0xCD,0xA5,0x09,
 0x67,0xCD,0xA5,0x09,0x6F,0x3A,0x4B,0xFF,
 0xFE,0x01,0xCA,0x95,0x09,0x3E,0x01,0x32,
 0x4B,0xFF,0x22,0x50,0xFF,0xCD,0xA5,0x09,
 0xFE,0x01,0xC8,0xCD,0xA5,0x09,0x77,0x23,
 0x10,0xF9,0x18,0xC8,0xC9,0x16,0x00,0xCD,
 0xAF,0x09,0x87,0x87,0x87,0x87,0x57,0xCD,
 0x48,0x00,0xD6,0x30,0xFE,0x0A,0x38,0x02,
 0xD6,0x07,0xB2,0xC9,0xE5,0xEB,0xED,0x52,
 0xEB,0xE1,0x3E,0x00,0x32,0x34,0xFF,0x06,
 0x10,0x3E,0x0D,0xCD,0x3C,0x00,0x3E,0x0A,
 0xCD,0x3C,0x00,0x7A,0xFE,0x00,0xCA,0xDC,
 0x09,0xC3,0xE9,0x09,0x7B,0xD6,0x10,0xDA,
 0xE5,0x09,0xC3,0xE9,0x09,0x43,0xC3,0xEB,
 0x09,0x06,0x10,0x3E,0x3A,0xCD,0x3C,0x00,
 0x78,0xCD,0x3A,0x0A,0x7C,0xCD,0x3A,0x0A,
 0x7D,0xCD,0x3A,0x0A,0x3E,0x00,0xCD,0x3A,
 0x0A,0xCD,0x22,0x0A,0x7A,0xB3,0xC2,0xD3,
 0x09,0x3E,0x3A,0xCD,0x3C,0x00,0x06,0x07,
 0x3E,0x30,0xCD,0x3C,0x00,0x10,0xF9,0x3E,
 0x31,0xCD,0x3C,0x00,0x3E,0xFF,0xCD,0x3A,
 0x0A,0xC9,0x7E,0xCD,0x3A,0x0A,0x23,0x1B,
 0x10,0xF8,0x3E,0xFF,0xCD,0x3A,0x0A,0x3E,
 0x0D,0xCD,0x3C,0x00,0x3E,0x0A,0xCD,0x3C,
 0x00,0xC9,0xC5,0xD5,0xE5,0xF5,0xE6,0xF0,
 0x1F,0x1F,0x1F,0x1F,0x32,0x33,0xFF,0xCD,
 0x59,0x0A,0xF1,0xF5,0xE6,0x0F,0x32,0x32,
 0xFF,0xCD,0x59,0x0A,0xF1,0xE1,0xD1,0xC1,
 0xC9,0x21,0x66,0x0A,0x06,0x00,0x4F,0xED,
 0x4A,0x7E,0xCD,0x3C,0x00,0xC9,0x30,0x31,
 0x32,0x33,0x34,0x35,0x36,0x37,0x38,0x39,
 0x41,0x42,0x43,0x44,0x45,0x46,0x0A,0x0D,
 0x45,0x4E,0x54,0x45,0x52,0x20,0x41,0x44,
 0x3A,0x0A,0x0D,0x45,0x4E,0x54,0x45,0x52,
 0x20,0x44,0x54,0x3A,0x0C,0x0D,0x45,0x66,
 0x65,0x78,0x4D,0x6F,0x6E,0x20,0x42,0x79,
 0x20,0x4D,0x2E,0x50,0x45,0x4B,0x45,0x52,
 0x20,0x76,0x31,0x2E,0x30,0x62,0x0A,0x0D,
 0x50,0x72,0x65,0x73,0x73,0x20,0x48,0x20,
 0x66,0x6F,0x72,0x20,0x68,0x65,0x6C,0x70,
 0x0A,0x0D,0x0A,0x0D,0x52,0x65,0x61,0x64,
 0x79,0x2E,0x0A,0x0D,0x07,0x0A,0x0D,0x07,
 0x50,0x72,0x65,0x73,0x73,0x20,0x61,0x6E,
 0x79,0x20,0x6B,0x65,0x79,0x20,0x74,0x6F,
 0x20,0x73,0x65,0x6E,0x64,0x20,0x21,0x0A,
 0x0D,0x0D,0x6C,0x6F,0x61,0x64,0x65,0x64,
 0x20,0x61,0x64,0x72,0x65,0x73,0x73,0x3A,
 0x0D,0x48,0x65,0x78,0x20,0x4C,0x6F,0x61,
 0x64,0x69,0x6E,0x67,0x2E,0x2E,0x2E,0x0A,
 0x0D,0x43,0x3A,0x3E,0x0A,0x0D,0x41,0x2D,
 0x41,0x73,0x73,0x65,0x6D,0x62,0x6C,0x65,
 0x72,0x0A,0x0D,0x44,0x2D,0x44,0x69,0x73,
 0x61,0x73,0x73,0x65,0x6D,0x62,0x6C,0x65,
 0x72,0x0A,0x0D,0x4C,0x2D,0x4C,0x6F,0x61,
 0x64,0x0A,0x0D,0x53,0x2D,0x53,0x61,0x76,
 0x65,0x0A,0x0D,0x45,0x2D,0x45,0x64,0x69,
 0x74,0x0A,0x0D,0x57,0x2D,0x57,0x61,0x72,
 0x6D,0x73,0x74,0x0A,0x0D,0x4D,0x2D,0x4D,
 0x6F,0x76,0x65,0x0A,0x0D,0x58,0x2D,0x48,
 0x65,0x78,0x64,0x75,0x6D,0x70,0x0A,0x0D,
 0x47,0x2D,0x47,0x6F,0x0A,0x0D,0x46,0x2D,
 0x46,0x69,0x6C,0x6C,0x0A,0x0D,0x55,0x2D,
 0x52,0x6F,0x75,0x74,0x69,0x6E,0x65,0x73,
 0x0A,0x0D,0x44,0x45,0x4C,0x41,0x59,0x20,
 0x20,0x28,0x53,0x29,0x3A,0x20,0x20,0x24,
 0x50,0x52,0x4F,0x4D,0x50,0x54,0x20,0x28,
 0x52,0x29,0x3A,0x20,0x20,0x24,0x20,0x41,
 0x20,0x2D,0x3E,0x20,0x55,0x41,0x52,0x54,
 0x0A,0x0D,0x48,0x45,0x58,0x4F,0x55,0x54,
 0x20,0x28,0x53,0x29,0x3A,0x20,0x20,0x24,
 0x20,0x2D,0x3E,0x20,0x46,0x46,0x34,0x32,
 0x0A,0x0D,0x42,0x59,0x54,0x45,0x49,0x4E,
 0x31,0x28,0x53,0x29,0x3A,0x20,0x20,0x24,
 0x20,0x2D,0x3E,0x20,0x46,0x46,0x34,0x33,
 0x2D,0x46,0x46,0x34,0x34,0x0A,0x0D,0x42,
 0x59,0x54,0x45,0x49,0x4E,0x32,0x28,0x53,
 0x29,0x3A,0x20,0x20,0x24,0x52,0x58,0x44,
 0x20,0x20,0x20,0x20,0x28,0x53,0x29,0x3A,
 0x20,0x20,0x24,0x54,0x58,0x44,0x20,0x20,
 0x20,0x20,0x28,0x53,0x29,0x3A,0x20,0x20,
 0x24,0x5F,0x41,0x44,0x43,0x20,0x41,0x2C,
 0x28,0x48,0x4C,0x29,0x01,0x8E,0xFF,0x5F,
 0x41,0x44,0x43,0x20,0x41,0x2C,0x41,0x01,
 0x8F,0xFF,0x5F,0x41,0x44,0x43,0x20,0x41,
 0x2C,0x42,0x01,0x88,0xFF,0x5F,0x41,0x44,
 0x43,0x20,0x41,0x2C,0x43,0x01,0x89,0xFF,
 0x5F,0x41,0x44,0x43,0x20,0x41,0x2C,0x44,
 0x01,0x8A,0xFF,0x5F,0x41,0x44,0x43,0x20,
 0x41,0x2C,0x45,0x01,0x8B,0xFF,0x5F,0x41,
 0x44,0x43,0x20,0x41,0x2C,0x48,0x01,0x8C,
 0xFF,0x5F,0x41,0x44,0x43,0x20,0x41,0x2C,
 0x4C,0x01,0x8D,0xFF,0x5F,0x41,0x44,0x43,
 0x20,0x41,0x2C,0x23,0x01,0xCE,0xFF,0x5F,
 0x41,0x44,0x44,0x20,0x41,0x2C,0x28,0x48,
 0x4C,0x29,0x01,0x86,0xFF,0x5F,0x41,0x44,
 0x44,0x20,0x41,0x2C,0x41,0x01,0x87,0xFF,
 0x5F,0x41,0x44,0x44,0x20,0x41,0x2C,0x42,
 0x01,0x80,0xFF,0x5F,0x41,0x44,0x44,0x20,
 0x41,0x2C,0x43,0x01,0x81,0xFF,0x5F,0x41,
 0x44,0x44,0x20,0x41,0x2C,0x44,0x01,0x82,
 0xFF,0x5F,0x41,0x44,0x44,0x20,0x41,0x2C,
 0x45,0x01,0x83,0xFF,0x5F,0x41,0x44,0x44,
 0x20,0x41,0x2C,0x48,0x01,0x84,0xFF,0x5F,
 0x41,0x44,0x44,0x20,0x41,0x2C,0x4C,0x01,
 0x85,0xFF,0x5F,0x41,0x44,0x44,0x20,0x41,
 0x2C,0x23,0x01,0xC6,0xFF,0x5F,0x41,0x44,
 0x44,0x20,0x48,0x4C,0x2C,0x42,0x43,0x01,
 0x09,0xFF,0x5F,0x41,0x44,0x44,0x20,0x48,
 0x4C,0x2C,0x44,0x45,0x01,0x19,0xFF,0x5F,
 0x41,0x44,0x44,0x20,0x48,0x4C,0x2C,0x48,
 0x4C,0x01,0x29,0xFF,0x5F,0x41,0x44,0x44,
 0x20,0x48,0x4C,0x2C,0x53,0x50,0x01,0x39,
 0xFF,0x5F,0x41,0x4E,0x44,0x20,0x28,0x48,
 0x4C,0x29,0x01,0xA6,0xFF,0x5F,0x41,0x4E,
 0x44,0x20,0x41,0x01,0xA7,0xFF,0x5F,0x41,
 0x4E,0x44,0x20,0x42,0x01,0xA0,0xFF,0x5F,
 0x41,0x4E,0x44,0x20,0x43,0x01,0xA1,0xFF,
 0x5F,0x41,0x4E,0x44,0x20,0x44,0x01,0xA2,
 0xFF,0x5F,0x41,0x4E,0x44,0x20,0x45,0x01,
 0xA3,0xFF,0x5F,0x41,0x4E,0x44,0x20,0x48,
 0x01,0xA4,0xFF,0x5F,0x41,0x4E,0x44,0x20,
 0x4C,0x01,0xA5,0xFF,0x5F,0x41,0x4E,0x44,
 0x20,0x23,0x01,0xE6,0xFF,0x5F,0x43,0x41,
 0x4C,0x4C,0x20,0x43,0x2C,0x24,0x01,0xDC,
 0xFF,0x5F,0x43,0x41,0x4C,0x4C,0x20,0x4D,
 0x2C,0x24,0x01,0xFC,0xFF,0x5F,0x43,0x41,
 0x4C,0x4C,0x20,0x4E,0x43,0x2C,0x24,0x01,
 0xD4,0xFF,0x5F,0x43,0x41,0x4C,0x4C,0x20,
 0x4E,0x5A,0x2C,0x24,0x01,0xC4,0xFF,0x5F,
 0x43,0x41,0x4C,0x4C,0x20,0x50,0x2C,0x24,
 0x01,0xF4,0xFF,0x5F,0x43,0x41,0x4C,0x4C,
 0x20,0x50,0x45,0x2C,0x24,0x01,0xEC,0xFF,
 0x5F,0x43,0x41,0x4C,0x4C,0x20,0x50,0x4F,
 0x2C,0x24,0x01,0xE4,0xFF,0x5F,0x43,0x41,
 0x4C,0x4C,0x20,0x5A,0x2C,0x24,0x01,0xCC,
 0xFF,0x5F,0x43,0x41,0x4C,0x4C,0x20,0x24,
 0x01,0xCD,0xFF,0x5F,0x43,0x43,0x46,0x01,
 0x3F,0xFF,0x5F,0x43,0x50,0x20,0x28,0x48,
 0x4C,0x29,0x01,0xBE,0xFF,0x5F,0x43,0x50,
 0x20,0x41,0x01,0xBF,0xFF,0x5F,0x43,0x50,
 0x20,0x42,0x01,0xB8,0xFF,0x5F,0x43,0x50,
 0x20,0x43,0x01,0xB9,0xFF,0x5F,0x43,0x50,
 0x20,0x44,0x01,0xBA,0xFF,0x5F,0x43,0x50,
 0x20,0x45,0x01,0xBB,0xFF,0x5F,0x43,0x50,
 0x20,0x48,0x01,0xBC,0xFF,0x5F,0x43,0x50,
 0x20,0x4C,0x01,0xBD,0xFF,0x5F,0x43,0x50,
 0x20,0x23,0x01,0xFE,0xFF,0x5F,0x43,0x50,
 0x4C,0x01,0x2F,0xFF,0x5F,0x44,0x41,0x41,
 0x01,0x27,0xFF,0x5F,0x44,0x45,0x43,0x20,
 0x28,0x48,0x4C,0x29,0x01,0x35,0xFF,0x5F,
 0x44,0x45,0x43,0x20,0x41,0x01,0x3D,0xFF,
 0x5F,0x44,0x45,0x43,0x20,0x42,0x01,0x05,
 0xFF,0x5F,0x44,0x45,0x43,0x20,0x42,0x43,
 0x01,0x0B,0xFF,0x5F,0x44,0x45,0x43,0x20,
 0x43,0x01,0x0D,0xFF,0x5F,0x44,0x45,0x43,
 0x20,0x44,0x01,0x15,0xFF,0x5F,0x44,0x45,
 0x43,0x20,0x44,0x45,0x01,0x1B,0xFF,0x5F,
 0x44,0x45,0x43,0x20,0x45,0x01,0x1D,0xFF,
 0x5F,0x44,0x45,0x43,0x20,0x48,0x01,0x25,
 0xFF,0x5F,0x44,0x45,0x43,0x20,0x48,0x4C,
 0x01,0x2B,0xFF,0x5F,0x44,0x45,0x43,0x20,
 0x4C,0x01,0x2D,0xFF,0x5F,0x44,0x45,0x43,
 0x20,0x53,0x50,0x01,0x3B,0xFF,0x5F,0x44,
 0x49,0x01,0xF3,0xFF,0x5F,0x44,0x4A,0x4E,
 0x5A,0x20,0x23,0x01,0x10,0xFF,0x5F,0x45,
 0x49,0x01,0xFB,0xFF,0x5F,0x45,0x58,0x20,
 0x28,0x53,0x50,0x29,0x2C,0x48,0x4C,0x01,
 0xE3,0xFF,0x5F,0x45,0x58,0x20,0x41,0x46,
 0x2C,0x41,0x46,0x01,0x08,0xFF,0x5F,0x45,
 0x58,0x20,0x44,0x45,0x2C,0x48,0x4C,0x01,
 0xEB,0xFF,0x5F,0x45,0x58,0x58,0x01,0xD9,
 0xFF,0x5F,0x48,0x41,0x4C,0x54,0x01,0x76,
 0xFF,0x5F,0x49,0x4E,0x20,0x41,0x2C,0x28,
 0x23,0x29,0x01,0xDB,0xFF,0x5F,0x49,0x4E,
 0x43,0x20,0x28,0x48,0x4C,0x29,0x01,0x34,
 0xFF,0x5F,0x49,0x4E,0x43,0x20,0x41,0x01,
 0x3C,0xFF,0x5F,0x49,0x4E,0x43,0x20,0x42,
 0x01,0x04,0xFF,0x5F,0x49,0x4E,0x43,0x20,
 0x42,0x43,0x01,0x03,0xFF,0x5F,0x49,0x4E,
 0x43,0x20,0x43,0x01,0x0C,0xFF,0x5F,0x49,
 0x4E,0x43,0x20,0x44,0x01,0x14,0xFF,0x5F,
 0x49,0x4E,0x43,0x20,0x44,0x45,0x01,0x13,
 0xFF,0x5F,0x49,0x4E,0x43,0x20,0x45,0x01,
 0x1C,0xFF,0x5F,0x49,0x4E,0x43,0x20,0x48,
 0x01,0x24,0xFF,0x5F,0x49,0x4E,0x43,0x20,
 0x48,0x4C,0x01,0x23,0xFF,0x5F,0x49,0x4E,
 0x43,0x20,0x4C,0x01,0x2C,0xFF,0x5F,0x49,
 0x4E,0x43,0x20,0x53,0x50,0x01,0x33,0xFF,
 0x5F,0x4A,0x52,0x20,0x43,0x2C,0x23,0x01,
 0x38,0xFF,0x5F,0x4A,0x52,0x20,0x4E,0x43,
 0x2C,0x23,0x01,0x30,0xFF,0x5F,0x4A,0x52,
 0x20,0x4E,0x5A,0x2C,0x23,0x01,0x20,0xFF,
 0x5F,0x4A,0x52,0x20,0x5A,0x2C,0x23,0x01,
 0x28,0xFF,0x5F,0x4A,0x52,0x20,0x23,0x01,
 0x18,0xFF,0x5F,0x4A,0x50,0x20,0x28,0x48,
 0x4C,0x29,0x01,0xE9,0xFF,0x5F,0x4A,0x50,
 0x20,0x43,0x2C,0x24,0x01,0xDA,0xFF,0x5F,
 0x4A,0x50,0x20,0x4D,0x2C,0x24,0x01,0xFA,
 0xFF,0x5F,0x4A,0x50,0x20,0x4E,0x43,0x2C,
 0x24,0x01,0xD2,0xFF,0x5F,0x4A,0x50,0x20,
 0x4E,0x5A,0x2C,0x24,0x01,0xC2,0xFF,0x5F,
 0x4A,0x50,0x20,0x50,0x2C,0x24,0x01,0xF2,
 0xFF,0x5F,0x4A,0x50,0x20,0x50,0x45,0x2C,
 0x24,0x01,0xEA,0xFF,0x5F,0x4A,0x50,0x20,
 0x50,0x4F,0x2C,0x24,0x01,0xE2,0xFF,0x5F,
 0x4A,0x50,0x20,0x5A,0x2C,0x24,0x01,0xCA,
 0xFF,0x5F,0x4A,0x50,0x20,0x24,0x01,0xC3,
 0xFF,0x5F,0x4C,0x44,0x20,0x28,0x42,0x43,
 0x29,0x2C,0x41,0x01,0x02,0xFF,0x5F,0x4C,
 0x44,0x20,0x28,0x44,0x45,0x29,0x2C,0x41,
 0x01,0x12,0xFF,0x5F,0x4C,0x44,0x20,0x28,
 0x48,0x4C,0x29,0x2C,0x41,0x01,0x77,0xFF,
 0x5F,0x4C,0x44,0x20,0x28,0x48,0x4C,0x29,
 0x2C,0x42,0x01,0x70,0xFF,0x5F,0x4C,0x44,
 0x20,0x28,0x48,0x4C,0x29,0x2C,0x43,0x01,
 0x71,0xFF,0x5F,0x4C,0x44,0x20,0x28,0x48,
 0x4C,0x29,0x2C,0x44,0x01,0x72,0xFF,0x5F,
 0x4C,0x44,0x20,0x28,0x48,0x4C,0x29,0x2C,
 0x45,0x01,0x73,0xFF,0x5F,0x4C,0x44,0x20,
 0x28,0x48,0x4C,0x29,0x2C,0x48,0x01,0x74,
 0xFF,0x5F,0x4C,0x44,0x20,0x28,0x48,0x4C,
 0x29,0x2C,0x4C,0x01,0x75,0xFF,0x5F,0x4C,
 0x44,0x20,0x28,0x48,0x4C,0x29,0x2C,0x23,
 0x01,0x36,0xFF,0x5F,0x4C,0x44,0x20,0x28,
 0x24,0x29,0x2C,0x41,0x01,0x32,0xFF,0x5F,
 0x4C,0x44,0x20,0x28,0x24,0x29,0x2C,0x48,
 0x4C,0x01,0x22,0xFF,0x5F,0x4C,0x44,0x20,
 0x41,0x2C,0x28,0x42,0x43,0x29,0x01,0x0A,
 0xFF,0x5F,0x4C,0x44,0x20,0x41,0x2C,0x28,
 0x44,0x45,0x29,0x01,0x1A,0xFF,0x5F,0x4C,
 0x44,0x20,0x41,0x2C,0x28,0x48,0x4C,0x29,
 0x01,0x7E,0xFF,0x5F,0x4C,0x44,0x20,0x41,
 0x2C,0x41,0x01,0x7F,0xFF,0x5F,0x4C,0x44,
 0x20,0x41,0x2C,0x42,0x01,0x78,0xFF,0x5F,
 0x4C,0x44,0x20,0x41,0x2C,0x43,0x01,0x79,
 0xFF,0x5F,0x4C,0x44,0x20,0x41,0x2C,0x44,
 0x01,0x7A,0xFF,0x5F,0x4C,0x44,0x20,0x41,
 0x2C,0x45,0x01,0x7B,0xFF,0x5F,0x4C,0x44,
 0x20,0x41,0x2C,0x48,0x01,0x7C,0xFF,0x5F,
 0x4C,0x44,0x20,0x41,0x2C,0x4C,0x01,0x7D,
 0xFF,0x5F,0x4C,0x44,0x20,0x41,0x2C,0x28,
 0x24,0x29,0x01,0x3A,0xFF,0x5F,0x4C,0x44,
 0x20,0x41,0x2C,0x23,0x01,0x3E,0xFF,0x5F,
 0x4C,0x44,0x20,0x42,0x2C,0x28,0x48,0x4C,
 0x29,0x01,0x46,0xFF,0x5F,0x4C,0x44,0x20,
 0x42,0x2C,0x41,0x01,0x47,0xFF,0x5F,0x4C,
 0x44,0x20,0x42,0x2C,0x42,0x01,0x40,0xFF,
 0x5F,0x4C,0x44,0x20,0x42,0x2C,0x43,0x01,
 0x41,0xFF,0x5F,0x4C,0x44,0x20,0x42,0x2C,
 0x44,0x01,0x42,0xFF,0x5F,0x4C,0x44,0x20,
 0x42,0x2C,0x45,0x01,0x43,0xFF,0x5F,0x4C,
 0x44,0x20,0x42,0x2C,0x48,0x01,0x44,0xFF,
 0x5F,0x4C,0x44,0x20,0x42,0x2C,0x4C,0x01,
 0x45,0xFF,0x5F,0x4C,0x44,0x20,0x42,0x2C,
 0x23,0x01,0x06,0xFF,0x5F,0x4C,0x44,0x20,
 0x42,0x43,0x2C,0x24,0x01,0x01,0xFF,0x5F,
 0x4C,0x44,0x20,0x43,0x2C,0x28,0x48,0x4C,
 0x29,0x01,0x4E,0xFF,0x5F,0x4C,0x44,0x20,
 0x43,0x2C,0x41,0x01,0x4F,0xFF,0x5F,0x4C,
 0x44,0x20,0x43,0x2C,0x42,0x01,0x48,0xFF,
 0x5F,0x4C,0x44,0x20,0x43,0x2C,0x43,0x01,
 0x49,0xFF,0x5F,0x4C,0x44,0x20,0x43,0x2C,
 0x44,0x01,0x4A,0xFF,0x5F,0x4C,0x44,0x20,
 0x43,0x2C,0x45,0x01,0x4B,0xFF,0x5F,0x4C,
 0x44,0x20,0x43,0x2C,0x48,0x01,0x4C,0xFF,
 0x5F,0x4C,0x44,0x20,0x43,0x2C,0x4C,0x01,
 0x4D,0xFF,0x5F,0x4C,0x44,0x20,0x43,0x2C,
 0x23,0x01,0x0E,0xFF,0x5F,0x4C,0x44,0x20,
 0x44,0x2C,0x28,0x48,0x4C,0x29,0x01,0x56,
 0xFF,0x5F,0x4C,0x44,0x20,0x44,0x2C,0x41,
 0x01,0x57,0xFF,0x5F,0x4C,0x44,0x20,0x44,
 0x2C,0x42,0x01,0x50,0xFF,0x5F,0x4C,0x44,
 0x20,0x44,0x2C,0x43,0x01,0x51,0xFF,0x5F,
 0x4C,0x44,0x20,0x44,0x2C,0x44,0x01,0x52,
 0xFF,0x5F,0x4C,0x44,0x20,0x44,0x2C,0x45,
 0x01,0x53,0xFF,0x5F,0x4C,0x44,0x20,0x44,
 0x2C,0x48,0x01,0x54,0xFF,0x5F,0x4C,0x44,
 0x20,0x44,0x2C,0x4C,0x01,0x55,0xFF,0x5F,
 0x4C,0x44,0x20,0x44,0x2C,0x23,0x01,0x16,
 0xFF,0x5F,0x4C,0x44,0x20,0x44,0x45,0x2C,
 0x24,0x01,0x11,0xFF,0x5F,0x4C,0x44,0x20,
 0x45,0x2C,0x28,0x48,0x4C,0x29,0x01,0x5E,
 0xFF,0x5F,0x4C,0x44,0x20,0x45,0x2C,0x41,
 0x01,0x5F,0xFF,0x5F,0x4C,0x44,0x20,0x45,
 0x2C,0x42,0x01,0x58,0xFF,0x5F,0x4C,0x44,
 0x20,0x45,0x2C,0x43,0x01,0x59,0xFF,0x5F,
 0x4C,0x44,0x20,0x45,0x2C,0x44,0x01,0x5A,
 0xFF,0x5F,0x4C,0x44,0x20,0x45,0x2C,0x45,
 0x01,0x5B,0xFF,0x5F,0x4C,0x44,0x20,0x45,
 0x2C,0x48,0x01,0x5C,0xFF,0x5F,0x4C,0x44,
 0x20,0x45,0x2C,0x4C,0x01,0x5D,0xFF,0x5F,
 0x4C,0x44,0x20,0x45,0x2C,0x23,0x01,0x1E,
 0xFF,0x5F,0x4C,0x44,0x20,0x48,0x2C,0x28,
 0x48,0x4C,0x29,0x01,0x66,0xFF,0x5F,0x4C,
 0x44,0x20,0x48,0x2C,0x41,0x01,0x67,0xFF,
 0x5F,0x4C,0x44,0x20,0x48,0x2C,0x42,0x01,
 0x60,0xFF,0x5F,0x4C,0x44,0x20,0x48,0x2C,
 0x43,0x01,0x61,0xFF,0x5F,0x4C,0x44,0x20,
 0x48,0x2C,0x44,0x01,0x62,0xFF,0x5F,0x4C,
 0x44,0x20,0x48,0x2C,0x45,0x01,0x63,0xFF,
 0x5F,0x4C,0x44,0x20,0x48,0x2C,0x48,0x01,
 0x64,0xFF,0x5F,0x4C,0x44,0x20,0x48,0x2C,
 0x4C,0x01,0x65,0xFF,0x5F,0x4C,0x44,0x20,
 0x48,0x2C,0x23,0x01,0x26,0xFF,0x5F,0x4C,
 0x44,0x20,0x48,0x4C,0x2C,0x28,0x24,0x29,
 0x01,0x2A,0xFF,0x5F,0x4C,0x44,0x20,0x48,
 0x4C,0x2C,0x24,0x01,0x21,0xFF,0x5F,0x4C,
 0x44,0x20,0x4C,0x2C,0x28,0x48,0x4C,0x29,
 0x01,0x6E,0xFF,0x5F,0x4C,0x44,0x20,0x4C,
 0x2C,0x41,0x01,0x6F,0xFF,0x5F,0x4C,0x44,
 0x20,0x4C,0x2C,0x42,0x01,0x68,0xFF,0x5F,
 0x4C,0x44,0x20,0x4C,0x2C,0x43,0x01,0x69,
 0xFF,0x5F,0x4C,0x44,0x20,0x4C,0x2C,0x44,
 0x01,0x6A,0xFF,0x5F,0x4C,0x44,0x20,0x4C,
 0x2C,0x45,0x01,0x6B,0xFF,0x5F,0x4C,0x44,
 0x20,0x4C,0x2C,0x48,0x01,0x6C,0xFF,0x5F,
 0x4C,0x44,0x20,0x4C,0x2C,0x4C,0x01,0x6D,
 0xFF,0x5F,0x4C,0x44,0x20,0x4C,0x2C,0x23,
 0x01,0x2E,0xFF,0x5F,0x4C,0x44,0x20,0x53,
 0x50,0x2C,0x24,0x01,0x31,0xFF,0x5F,0x4C,
 0x44,0x20,0x53,0x50,0x2C,0x48,0x4C,0x01,
 0xF9,0xFF,0x5F,0x4E,0x4F,0x50,0x01,0x00,
 0xFF,0x5F,0x4F,0x52,0x20,0x28,0x48,0x4C,
 0x29,0x01,0xB6,0xFF,0x5F,0x4F,0x52,0x20,
 0x41,0x01,0xB7,0xFF,0x5F,0x4F,0x52,0x20,
 0x42,0x01,0xB0,0xFF,0x5F,0x4F,0x52,0x20,
 0x43,0x01,0xB1,0xFF,0x5F,0x4F,0x52,0x20,
 0x44,0x01,0xB2,0xFF,0x5F,0x4F,0x52,0x20,
 0x45,0x01,0xB3,0xFF,0x5F,0x4F,0x52,0x20,
 0x48,0x01,0xB4,0xFF,0x5F,0x4F,0x52,0x20,
 0x4C,0x01,0xB5,0xFF,0x5F,0x4F,0x52,0x20,
 0x23,0x01,0xF6,0xFF,0x5F,0x4F,0x55,0x54,
 0x20,0x28,0x23,0x29,0x2C,0x41,0x01,0xD3,
 0xFF,0x5F,0x50,0x4F,0x50,0x20,0x41,0x46,
 0x01,0xF1,0xFF,0x5F,0x50,0x4F,0x50,0x20,
 0x42,0x43,0x01,0xC1,0xFF,0x5F,0x50,0x4F,
 0x50,0x20,0x44,0x45,0x01,0xD1,0xFF,0x5F,
 0x50,0x4F,0x50,0x20,0x48,0x4C,0x01,0xE1,
 0xFF,0x5F,0x50,0x55,0x53,0x48,0x20,0x41,
 0x46,0x01,0xF5,0xFF,0x5F,0x50,0x55,0x53,
 0x48,0x20,0x42,0x43,0x01,0xC5,0xFF,0x5F,
 0x50,0x55,0x53,0x48,0x20,0x44,0x45,0x01,
 0xD5,0xFF,0x5F,0x50,0x55,0x53,0x48,0x20,
 0x48,0x4C,0x01,0xE5,0xFF,0x5F,0x52,0x45,
 0x54,0x01,0xC9,0xFF,0x5F,0x52,0x45,0x54,
 0x20,0x43,0x01,0xD8,0xFF,0x5F,0x52,0x45,
 0x54,0x20,0x4D,0x01,0xF8,0xFF,0x5F,0x52,
 0x45,0x54,0x20,0x4E,0x43,0x01,0xD0,0xFF,
 0x5F,0x52,0x45,0x54,0x20,0x4E,0x5A,0x01,
 0xC0,0xFF,0x5F,0x52,0x45,0x54,0x20,0x50,
 0x01,0xF0,0xFF,0x5F,0x52,0x45,0x54,0x20,
 0x50,0x45,0x01,0xE8,0xFF,0x5F,0x52,0x45,
 0x54,0x20,0x50,0x4F,0x01,0xE0,0xFF,0x5F,
 0x52,0x45,0x54,0x20,0x5A,0x01,0xC8,0xFF,
 0x5F,0x52,0x4C,0x41,0x01,0x17,0xFF,0x5F,
 0x52,0x4C,0x43,0x41,0x01,0x07,0xFF,0x5F,
 0x52,0x52,0x41,0x01,0x1F,0xFF,0x5F,0x52,
 0x52,0x43,0x41,0x01,0x0F,0xFF,0x5F,0x52,
 0x53,0x54,0x20,0x30,0x30,0x01,0xC7,0xFF,
 0x5F,0x52,0x53,0x54,0x20,0x30,0x38,0x01,
 0xCF,0xFF,0x5F,0x52,0x53,0x54,0x20,0x31,
 0x30,0x01,0xD7,0xFF,0x5F,0x52,0x53,0x54,
 0x20,0x31,0x38,0x01,0xDF,0xFF,0x5F,0x52,
 0x53,0x54,0x20,0x32,0x30,0x01,0xE7,0xFF,
 0x5F,0x52,0x53,0x54,0x20,0x32,0x38,0x01,
 0xEF,0xFF,0x5F,0x52,0x53,0x54,0x20,0x33,
 0x30,0x01,0xF7,0xFF,0x5F,0x52,0x53,0x54,
 0x20,0x33,0x38,0x01,0xFF,0xFF,0x5F,0x53,
 0x42,0x43,0x20,0x41,0x2C,0x28,0x48,0x4C,
 0x29,0x01,0x9E,0xFF,0x5F,0x53,0x42,0x43,
 0x20,0x41,0x2C,0x41,0x01,0x9F,0xFF,0x5F,
 0x53,0x42,0x43,0x20,0x41,0x2C,0x42,0x01,
 0x98,0xFF,0x5F,0x53,0x42,0x43,0x20,0x41,
 0x2C,0x43,0x01,0x99,0xFF,0x5F,0x53,0x42,
 0x43,0x20,0x41,0x2C,0x44,0x01,0x9A,0xFF,
 0x5F,0x53,0x42,0x43,0x20,0x41,0x2C,0x45,
 0x01,0x9B,0xFF,0x5F,0x53,0x42,0x43,0x20,
 0x41,0x2C,0x48,0x01,0x9C,0xFF,0x5F,0x53,
 0x42,0x43,0x20,0x41,0x2C,0x4C,0x01,0x9D,
 0xFF,0x5F,0x53,0x42,0x43,0x20,0x41,0x2C,
 0x23,0x01,0xDE,0xFF,0x5F,0x53,0x43,0x46,
 0x01,0x37,0xFF,0x5F,0x53,0x55,0x42,0x20,
 0x28,0x48,0x4C,0x29,0x01,0x96,0xFF,0x5F,
 0x53,0x55,0x42,0x20,0x41,0x01,0x97,0xFF,
 0x5F,0x53,0x55,0x42,0x20,0x42,0x01,0x90,
 0xFF,0x5F,0x53,0x55,0x42,0x20,0x43,0x01,
 0x91,0xFF,0x5F,0x53,0x55,0x42,0x20,0x44,
 0x01,0x92,0xFF,0x5F,0x53,0x55,0x42,0x20,
 0x45,0x01,0x93,0xFF,0x5F,0x53,0x55,0x42,
 0x20,0x48,0x01,0x94,0xFF,0x5F,0x53,0x55,
 0x42,0x20,0x4C,0x01,0x95,0xFF,0x5F,0x53,
 0x55,0x42,0x20,0x23,0x01,0xD6,0xFF,0x5F,
 0x58,0x4F,0x52,0x20,0x28,0x48,0x4C,0x29,
 0x01,0xAE,0xFF,0x5F,0x58,0x4F,0x52,0x20,
 0x41,0x01,0xAF,0xFF,0x5F,0x58,0x4F,0x52,
 0x20,0x42,0x01,0xA8,0xFF,0x5F,0x58,0x4F,
 0x52,0x20,0x43,0x01,0xA9,0xFF,0x5F,0x58,
 0x4F,0x52,0x20,0x44,0x01,0xAA,0xFF,0x5F,
 0x58,0x4F,0x52,0x20,0x45,0x01,0xAB,0xFF,
 0x5F,0x58,0x4F,0x52,0x20,0x48,0x01,0xAC,
 0xFF,0x5F,0x58,0x4F,0x52,0x20,0x4C,0x01,
 0xAD,0xFF,0x5F,0x58,0x4F,0x52,0x20,0x23,
 0x01,0xEE,0xFF,0x5F,0x41,0x44,0x43,0x20,
 0x41,0x2C,0x28,0x49,0x58,0x2B,0x23,0x29,
 0x02,0xDD,0x8E,0x5F,0x41,0x44,0x43,0x20,
 0x41,0x2C,0x28,0x49,0x59,0x2B,0x23,0x29,
 0x02,0xFD,0x8E,0x5F,0x41,0x44,0x43,0x20,
 0x48,0x4C,0x2C,0x42,0x43,0x02,0xED,0x4A,
 0x5F,0x41,0x44,0x43,0x20,0x48,0x4C,0x2C,
 0x44,0x45,0x02,0xED,0x5A,0x5F,0x41,0x44,
 0x43,0x20,0x48,0x4C,0x2C,0x48,0x4C,0x02,
 0xED,0x6A,0x5F,0x41,0x44,0x43,0x20,0x48,
 0x4C,0x2C,0x53,0x50,0x02,0xED,0x7A,0x5F,
 0x41,0x44,0x44,0x20,0x41,0x2C,0x28,0x49,
 0x58,0x2B,0x23,0x29,0x02,0xDD,0x86,0x5F,
 0x41,0x44,0x44,0x20,0x41,0x2C,0x28,0x49,
 0x59,0x2B,0x23,0x29,0x02,0xFD,0x86,0x5F,
 0x41,0x44,0x44,0x20,0x49,0x58,0x2C,0x42,
 0x43,0x02,0xDD,0x09,0x5F,0x41,0x44,0x44,
 0x20,0x49,0x58,0x2C,0x44,0x45,0x02,0xDD,
 0x19,0x5F,0x41,0x44,0x44,0x20,0x49,0x58,
 0x2C,0x49,0x58,0x02,0xDD,0x29,0x5F,0x41,
 0x44,0x44,0x20,0x49,0x58,0x2C,0x53,0x50,
 0x02,0xDD,0x39,0x5F,0x41,0x44,0x44,0x20,
 0x49,0x59,0x2C,0x42,0x43,0x02,0xFD,0x09,
 0x5F,0x41,0x44,0x44,0x20,0x49,0x59,0x2C,
 0x44,0x45,0x02,0xFD,0x19,0x5F,0x41,0x44,
 0x44,0x20,0x49,0x59,0x2C,0x49,0x59,0x02,
 0xFD,0x29,0x5F,0x41,0x44,0x44,0x20,0x49,
 0x59,0x2C,0x53,0x50,0x02,0xFD,0x39,0x5F,
 0x41,0x4E,0x44,0x20,0x28,0x49,0x58,0x2B,
 0x23,0x29,0x02,0xDD,0xA6,0x5F,0x41,0x4E,
 0x44,0x20,0x28,0x49,0x59,0x2B,0x23,0x29,
 0x02,0xFD,0xA6,0x5F,0x42,0x49,0x54,0x20,
 0x23,0x2C,0x28,0x48,0x4C,0x29,0x02,0xCB,
 0x46,0x5F,0x42,0x49,0x54,0x20,0x23,0x2C,
 0x41,0x02,0xCB,0x47,0x5F,0x42,0x49,0x54,
 0x20,0x23,0x2C,0x42,0x02,0xCB,0x40,0x5F,
 0x42,0x49,0x54,0x20,0x23,0x2C,0x43,0x02,
 0xCB,0x41,0x5F,0x42,0x49,0x54,0x20,0x23,
 0x2C,0x44,0x02,0xCB,0x42,0x5F,0x42,0x49,
 0x54,0x20,0x23,0x2C,0x45,0x02,0xCB,0x43,
 0x5F,0x42,0x49,0x54,0x20,0x23,0x2C,0x48,
 0x02,0xCB,0x44,0x5F,0x42,0x49,0x54,0x20,
 0x23,0x2C,0x4C,0x02,0xCB,0x45,0x5F,0x43,
 0x50,0x20,0x28,0x49,0x58,0x2B,0x23,0x29,
 0x02,0xDD,0xBE,0x5F,0x43,0x50,0x20,0x28,
 0x49,0x59,0x2B,0x23,0x29,0x02,0xFD,0xBE,
 0x5F,0x43,0x50,0x44,0x02,0xED,0xA9,0x5F,
 0x43,0x50,0x44,0x52,0x02,0xED,0xB9,0x5F,
 0x43,0x50,0x49,0x02,0xED,0xA1,0x5F,0x43,
 0x50,0x49,0x52,0x02,0xED,0xB1,0x5F,0x44,
 0x45,0x43,0x20,0x28,0x49,0x58,0x2B,0x23,
 0x29,0x02,0xDD,0x35,0x5F,0x44,0x45,0x43,
 0x20,0x28,0x49,0x59,0x2B,0x23,0x29,0x02,
 0xFD,0x35,0x5F,0x44,0x45,0x43,0x20,0x49,
 0x58,0x02,0xDD,0x2B,0x5F,0x44,0x45,0x43,
 0x20,0x49,0x59,0x02,0xFD,0x2B,0x5F,0x45,
 0x58,0x20,0x28,0x53,0x50,0x29,0x2C,0x49,
 0x58,0x02,0xDD,0xE3,0x5F,0x45,0x58,0x20,
 0x28,0x53,0x50,0x29,0x2C,0x49,0x59,0x02,
 0xFD,0xE3,0x5F,0x49,0x4D,0x30,0x02,0xED,
 0x46,0x5F,0x49,0x4D,0x31,0x02,0xED,0x56,
 0x5F,0x49,0x4D,0x32,0x02,0xED,0x5E,0x5F,
 0x49,0x4E,0x20,0x41,0x2C,0x28,0x43,0x29,
 0x02,0xED,0x78,0x5F,0x49,0x4E,0x20,0x42,
 0x2C,0x28,0x43,0x29,0x02,0xED,0x40,0x5F,
 0x49,0x4E,0x20,0x43,0x2C,0x28,0x43,0x29,
 0x02,0xED,0x48,0x5F,0x49,0x4E,0x20,0x44,
 0x2C,0x28,0x43,0x29,0x02,0xED,0x50,0x5F,
 0x49,0x4E,0x20,0x45,0x2C,0x28,0x43,0x29,
 0x02,0xED,0x58,0x5F,0x49,0x4E,0x20,0x48,
 0x2C,0x28,0x43,0x29,0x02,0xED,0x60,0x5F,
 0x49,0x4E,0x20,0x4C,0x2C,0x28,0x43,0x29,
 0x02,0xED,0x68,0x5F,0x49,0x4E,0x43,0x20,
 0x28,0x49,0x58,0x2B,0x23,0x29,0x02,0xDD,
 0x34,0x5F,0x49,0x4E,0x43,0x20,0x28,0x49,
 0x59,0x2B,0x23,0x29,0x02,0xFD,0x34,0x5F,
 0x49,0x4E,0x44,0x02,0xED,0xAA,0x5F,0x49,
 0x4E,0x44,0x52,0x02,0xED,0xBA,0x5F,0x49,
 0x4E,0x49,0x02,0xED,0xA2,0x5F,0x49,0x4E,
 0x49,0x52,0x02,0xED,0xB2,0x5F,0x49,0x4E,
 0x43,0x20,0x49,0x58,0x02,0xDD,0x23,0x5F,
 0x49,0x4E,0x43,0x20,0x49,0x59,0x02,0xFD,
 0x23,0x5F,0x4A,0x50,0x20,0x28,0x49,0x58,
 0x2B,0x23,0x29,0x02,0xDD,0xE9,0x5F,0x4A,
 0x50,0x20,0x28,0x49,0x59,0x2B,0x23,0x29,
 0x02,0xFD,0xE9,0x5F,0x4C,0x44,0x20,0x28,
 0x49,0x58,0x2B,0x23,0x29,0x2C,0x41,0x02,
 0xDD,0x77,0x5F,0x4C,0x44,0x20,0x28,0x49,
 0x58,0x2B,0x23,0x29,0x2C,0x42,0x02,0xDD,
 0x70,0x5F,0x4C,0x44,0x20,0x28,0x49,0x58,
 0x2B,0x23,0x29,0x2C,0x43,0x02,0xDD,0x71,
 0x5F,0x4C,0x44,0x20,0x28,0x49,0x58,0x2B,
 0x23,0x29,0x2C,0x44,0x02,0xDD,0x72,0x5F,
 0x4C,0x44,0x20,0x28,0x49,0x58,0x2B,0x23,
 0x29,0x2C,0x45,0x02,0xDD,0x73,0x5F,0x4C,
 0x44,0x20,0x28,0x49,0x58,0x2B,0x23,0x29,
 0x2C,0x48,0x02,0xDD,0x74,0x5F,0x4C,0x44,
 0x20,0x28,0x49,0x58,0x2B,0x23,0x29,0x2C,
 0x4C,0x02,0xDD,0x75,0x5F,0x4C,0x44,0x20,
 0x28,0x49,0x59,0x2B,0x23,0x29,0x2C,0x41,
 0x02,0xFD,0x77,0x5F,0x4C,0x44,0x20,0x28,
 0x49,0x59,0x2B,0x23,0x29,0x2C,0x42,0x02,
 0xFD,0x70,0x5F,0x4C,0x44,0x20,0x28,0x49,
 0x59,0x2B,0x23,0x29,0x2C,0x43,0x02,0xFD,
 0x71,0x5F,0x4C,0x44,0x20,0x28,0x49,0x59,
 0x2B,0x23,0x29,0x2C,0x44,0x02,0xFD,0x72,
 0x5F,0x4C,0x44,0x20,0x28,0x49,0x59,0x2B,
 0x23,0x29,0x2C,0x45,0x02,0xFD,0x73,0x5F,
 0x4C,0x44,0x20,0x28,0x49,0x59,0x2B,0x23,
 0x29,0x2C,0x48,0x02,0xFD,0x74,0x5F,0x4C,
 0x44,0x20,0x28,0x49,0x59,0x2B,0x23,0x29,
 0x2C,0x4C,0x02,0xFD,0x75,0x5F,0x4C,0x44,
 0x20,0x28,0x24,0x29,0x2C,0x42,0x43,0x02,
 0xED,0x43,0x5F,0x4C,0x44,0x20,0x28,0x24,
 0x29,0x2C,0x44,0x45,0x02,0xED,0x53,0x5F,
 0x4C,0x44,0x20,0x28,0x24,0x29,0x2C,0x49,
 0x58,0x02,0xDD,0x22,0x5F,0x4C,0x44,0x20,
 0x28,0x24,0x29,0x2C,0x49,0x59,0x02,0xFD,
 0x22,0x5F,0x4C,0x44,0x20,0x28,0x24,0x29,
 0x2C,0x53,0x50,0x02,0xED,0x73,0x5F,0x4C,
 0x44,0x20,0x41,0x2C,0x28,0x49,0x58,0x2B,
 0x23,0x29,0x02,0xDD,0x7E,0x5F,0x4C,0x44,
 0x20,0x41,0x2C,0x28,0x49,0x59,0x2B,0x23,
 0x29,0x02,0xFD,0x7E,0x5F,0x4C,0x44,0x20,
 0x41,0x2C,0x49,0x02,0xED,0x57,0x5F,0x4C,
 0x44,0x20,0x41,0x2C,0x52,0x02,0xED,0x5F,
 0x5F,0x4C,0x44,0x20,0x42,0x2C,0x28,0x49,
 0x58,0x2B,0x23,0x29,0x02,0xDD,0x46,0x5F,
 0x4C,0x44,0x20,0x42,0x2C,0x28,0x49,0x59,
 0x2B,0x23,0x29,0x02,0xFD,0x46,0x5F,0x4C,
 0x44,0x20,0x42,0x43,0x2C,0x28,0x24,0x29,
 0x02,0xED,0x4B,0x5F,0x4C,0x44,0x20,0x43,
 0x2C,0x28,0x49,0x58,0x2B,0x23,0x29,0x02,
 0xDD,0x4E,0x5F,0x4C,0x44,0x20,0x43,0x2C,
 0x28,0x49,0x59,0x2B,0x23,0x29,0x02,0xFD,
 0x4E,0x5F,0x4C,0x44,0x20,0x44,0x2C,0x28,
 0x49,0x58,0x2B,0x23,0x29,0x02,0xDD,0x56,
 0x5F,0x4C,0x44,0x20,0x44,0x2C,0x28,0x49,
 0x59,0x2B,0x23,0x29,0x02,0xFD,0x56,0x5F,
 0x4C,0x44,0x20,0x44,0x45,0x2C,0x28,0x24,
 0x29,0x02,0xED,0x5B,0x5F,0x4C,0x44,0x20,
 0x45,0x2C,0x28,0x49,0x58,0x2B,0x23,0x29,
 0x02,0xDD,0x5E,0x5F,0x4C,0x44,0x20,0x45,
 0x2C,0x28,0x49,0x59,0x2B,0x23,0x29,0x02,
 0xFD,0x5E,0x5F,0x4C,0x44,0x20,0x48,0x2C,
 0x28,0x49,0x58,0x2B,0x23,0x29,0x02,0xDD,
 0x66,0x5F,0x4C,0x44,0x20,0x48,0x2C,0x28,
 0x49,0x59,0x2B,0x23,0x29,0x02,0xFD,0x66,
 0x5F,0x4C,0x44,0x20,0x49,0x2C,0x41,0x02,
 0xED,0x47,0x5F,0x4C,0x44,0x20,0x49,0x58,
 0x2C,0x28,0x24,0x29,0x02,0xDD,0x2A,0x5F,
 0x4C,0x44,0x20,0x49,0x58,0x2C,0x24,0x02,
 0xDD,0x21,0x5F,0x4C,0x44,0x20,0x49,0x59,
 0x2C,0x28,0x24,0x29,0x02,0xFD,0x2A,0x5F,
 0x4C,0x44,0x20,0x49,0x59,0x2C,0x24,0x02,
 0xFD,0x21,0x5F,0x4C,0x44,0x20,0x4C,0x2C,
 0x28,0x49,0x58,0x2B,0x23,0x29,0x02,0xDD,
 0x6E,0x5F,0x4C,0x44,0x20,0x4C,0x2C,0x28,
 0x49,0x59,0x2B,0x23,0x29,0x02,0xFD,0x6E,
 0x5F,0x4C,0x44,0x20,0x52,0x2C,0x41,0x02,
 0xED,0x4F,0x5F,0x4C,0x44,0x20,0x53,0x50,
 0x2C,0x28,0x24,0x29,0x02,0xED,0x7B,0x5F,
 0x4C,0x44,0x20,0x53,0x50,0x2C,0x49,0x58,
 0x02,0xDD,0xF9,0x5F,0x4C,0x44,0x20,0x53,
 0x50,0x2C,0x49,0x59,0x02,0xFD,0xF9,0x5F,
 0x4C,0x44,0x44,0x02,0xED,0xA8,0x5F,0x4C,
 0x44,0x44,0x52,0x02,0xED,0xB8,0x5F,0x4C,
 0x44,0x49,0x02,0xED,0xA0,0x5F,0x4C,0x44,
 0x49,0x52,0x02,0xED,0xB0,0x5F,0x4E,0x45,
 0x47,0x02,0xED,0x44,0x5F,0x4F,0x52,0x20,
 0x28,0x49,0x58,0x2B,0x23,0x29,0x02,0xDD,
 0xB6,0x5F,0x4F,0x52,0x20,0x28,0x49,0x59,
 0x2B,0x23,0x29,0x02,0xFD,0xB6,0x5F,0x4F,
 0x54,0x44,0x52,0x02,0xED,0xBB,0x5F,0x4F,
 0x54,0x49,0x52,0x02,0xED,0xB3,0x5F,0x4F,
 0x55,0x54,0x20,0x28,0x43,0x29,0x2C,0x41,
 0x02,0xED,0x79,0x5F,0x4F,0x55,0x54,0x20,
 0x28,0x43,0x29,0x2C,0x42,0x02,0xED,0x41,
 0x5F,0x4F,0x55,0x54,0x20,0x28,0x43,0x29,
 0x2C,0x43,0x02,0xED,0x49,0x5F,0x4F,0x55,
 0x54,0x20,0x28,0x43,0x29,0x2C,0x44,0x02,
 0xED,0x51,0x5F,0x4F,0x55,0x54,0x20,0x28,
 0x43,0x29,0x2C,0x45,0x02,0xED,0x59,0x5F,
 0x4F,0x55,0x54,0x20,0x28,0x43,0x29,0x2C,
 0x48,0x02,0xED,0x61,0x5F,0x4F,0x55,0x54,
 0x20,0x28,0x43,0x29,0x2C,0x4C,0x02,0xED,
 0x69,0x5F,0x4F,0x55,0x54,0x44,0x02,0xED,
 0xAB,0x5F,0x4F,0x55,0x54,0x49,0x02,0xED,
 0xA3,0x5F,0x50,0x4F,0x50,0x20,0x49,0x58,
 0x02,0xDD,0xE1,0x5F,0x50,0x4F,0x50,0x20,
 0x49,0x59,0x02,0xFD,0xE1,0x5F,0x50,0x55,
 0x53,0x48,0x20,0x49,0x58,0x02,0xDD,0xE5,
 0x5F,0x50,0x55,0x53,0x48,0x20,0x49,0x59,
 0x02,0xFD,0xE5,0x5F,0x52,0x45,0x53,0x20,
 0x23,0x2C,0x28,0x48,0x4C,0x29,0x02,0xCB,
 0x86,0x5F,0x52,0x45,0x53,0x20,0x23,0x2C,
 0x41,0x02,0xCB,0x87,0x5F,0x52,0x45,0x53,
 0x20,0x23,0x2C,0x42,0x02,0xCB,0x80,0x5F,
 0x52,0x45,0x53,0x20,0x23,0x2C,0x43,0x02,
 0xCB,0x81,0x5F,0x52,0x45,0x53,0x20,0x23,
 0x2C,0x44,0x02,0xCB,0x82,0x5F,0x52,0x45,
 0x53,0x20,0x23,0x2C,0x45,0x02,0xCB,0x83,
 0x5F,0x52,0x45,0x53,0x20,0x23,0x2C,0x48,
 0x02,0xCB,0x84,0x5F,0x52,0x45,0x53,0x20,
 0x23,0x2C,0x4C,0x02,0xCB,0x85,0x5F,0x52,
 0x45,0x54,0x49,0x02,0xED,0x4D,0x5F,0x52,
 0x45,0x54,0x4E,0x02,0xED,0x45,0x5F,0x52,
 0x4C,0x20,0x28,0x48,0x4C,0x29,0x02,0xCB,
 0x16,0x5F,0x52,0x4C,0x20,0x41,0x02,0xCB,
 0x17,0x5F,0x52,0x4C,0x20,0x42,0x02,0xCB,
 0x10,0x5F,0x52,0x4C,0x20,0x43,0x02,0xCB,
 0x11,0x5F,0x52,0x4C,0x20,0x44,0x02,0xCB,
 0x12,0x5F,0x52,0x4C,0x20,0x45,0x02,0xCB,
 0x13,0x5F,0x52,0x4C,0x20,0x48,0x02,0xCB,
 0x14,0x5F,0x52,0x4C,0x20,0x4C,0x02,0xCB,
 0x15,0x5F,0x52,0x4C,0x43,0x20,0x28,0x48,
 0x4C,0x29,0x02,0xCB,0x06,0x5F,0x52,0x4C,
 0x43,0x20,0x41,0x02,0xCB,0x07,0x5F,0x52,
 0x4C,0x43,0x20,0x42,0x02,0xCB,0x00,0x5F,
 0x52,0x4C,0x43,0x20,0x43,0x02,0xCB,0x01,
 0x5F,0x52,0x4C,0x43,0x20,0x44,0x02,0xCB,
 0x02,0x5F,0x52,0x4C,0x43,0x20,0x45,0x02,
 0xCB,0x03,0x5F,0x52,0x4C,0x43,0x20,0x48,
 0x02,0xCB,0x04,0x5F,0x52,0x4C,0x43,0x20,
 0x4C,0x02,0xCB,0x05,0x5F,0x52,0x4C,0x44,
 0x02,0xED,0x6F,0x5F,0x52,0x52,0x44,0x02,
 0xED,0x67,0x5F,0x52,0x52,0x20,0x28,0x48,
 0x4C,0x29,0x02,0xCB,0x1E,0x5F,0x52,0x52,
 0x20,0x41,0x02,0xCB,0x1F,0x5F,0x52,0x52,
 0x20,0x42,0x02,0xCB,0x18,0x5F,0x52,0x52,
 0x20,0x43,0x02,0xCB,0x19,0x5F,0x52,0x52,
 0x20,0x44,0x02,0xCB,0x1A,0x5F,0x52,0x52,
 0x20,0x45,0x02,0xCB,0x1B,0x5F,0x52,0x52,
 0x20,0x48,0x02,0xCB,0x1C,0x5F,0x52,0x52,
 0x20,0x4C,0x02,0xCB,0x1D,0x5F,0x52,0x52,
 0x43,0x20,0x28,0x48,0x4C,0x29,0x02,0xCB,
 0x0E,0x5F,0x52,0x52,0x43,0x20,0x41,0x02,
 0xCB,0x0F,0x5F,0x52,0x52,0x43,0x20,0x42,
 0x02,0xCB,0x08,0x5F,0x52,0x52,0x43,0x20,
 0x43,0x02,0xCB,0x09,0x5F,0x52,0x52,0x43,
 0x20,0x44,0x02,0xCB,0x0A,0x5F,0x52,0x52,
 0x43,0x20,0x45,0x02,0xCB,0x0B,0x5F,0x52,
 0x52,0x43,0x20,0x48,0x02,0xCB,0x0C,0x5F,
 0x52,0x52,0x43,0x20,0x4C,0x02,0xCB,0x0D,
 0x5F,0x53,0x42,0x43,0x20,0x41,0x2C,0x28,
 0x49,0x58,0x2B,0x23,0x29,0x02,0xDD,0x9E,
 0x5F,0x53,0x42,0x43,0x20,0x41,0x2C,0x28,
 0x49,0x59,0x2B,0x23,0x29,0x02,0xFD,0x9E,
 0x5F,0x53,0x42,0x43,0x20,0x48,0x4C,0x2C,
 0x42,0x43,0x02,0xED,0x42,0x5F,0x53,0x42,
 0x43,0x20,0x48,0x4C,0x2C,0x44,0x45,0x02,
 0xED,0x52,0x5F,0x53,0x42,0x43,0x20,0x48,
 0x4C,0x2C,0x48,0x4C,0x02,0xED,0x62,0x5F,
 0x53,0x42,0x43,0x20,0x48,0x4C,0x2C,0x53,
 0x50,0x02,0xED,0x72,0x5F,0x53,0x45,0x54,
 0x20,0x23,0x2C,0x28,0x48,0x4C,0x29,0x02,
 0xCB,0xC6,0x5F,0x53,0x45,0x54,0x20,0x23,
 0x2C,0x41,0x02,0xCB,0xC7,0x5F,0x53,0x45,
 0x54,0x20,0x23,0x2C,0x42,0x02,0xCB,0xC0,
 0x5F,0x53,0x45,0x54,0x20,0x23,0x2C,0x43,
 0x02,0xCB,0xC1,0x5F,0x53,0x45,0x54,0x20,
 0x23,0x2C,0x44,0x02,0xCB,0xC2,0x5F,0x53,
 0x45,0x54,0x20,0x23,0x2C,0x45,0x02,0xCB,
 0xC3,0x5F,0x53,0x45,0x54,0x20,0x23,0x2C,
 0x48,0x02,0xCB,0xC4,0x5F,0x53,0x45,0x54,
 0x20,0x23,0x2C,0x4C,0x02,0xCB,0xC5,0x5F,
 0x53,0x4C,0x41,0x20,0x28,0x48,0x4C,0x29,
 0x02,0xCB,0x26,0x5F,0x53,0x4C,0x41,0x20,
 0x41,0x02,0xCB,0x27,0x5F,0x53,0x4C,0x41,
 0x20,0x42,0x02,0xCB,0x20,0x5F,0x53,0x4C,
 0x41,0x20,0x43,0x02,0xCB,0x21,0x5F,0x53,
 0x4C,0x41,0x20,0x44,0x02,0xCB,0x22,0x5F,
 0x53,0x4C,0x41,0x20,0x45,0x02,0xCB,0x23,
 0x5F,0x53,0x4C,0x41,0x20,0x48,0x02,0xCB,
 0x24,0x5F,0x53,0x4C,0x41,0x20,0x4C,0x02,
 0xCB,0x25,0x5F,0x53,0x52,0x41,0x20,0x28,
 0x48,0x4C,0x29,0x02,0xCB,0x2E,0x5F,0x53,
 0x52,0x41,0x20,0x41,0x02,0xCB,0x2F,0x5F,
 0x53,0x52,0x41,0x20,0x42,0x02,0xCB,0x28,
 0x5F,0x53,0x52,0x41,0x20,0x43,0x02,0xCB,
 0x29,0x5F,0x53,0x52,0x41,0x20,0x44,0x02,
 0xCB,0x2A,0x5F,0x53,0x52,0x41,0x20,0x45,
 0x02,0xCB,0x2B,0x5F,0x53,0x52,0x41,0x20,
 0x48,0x02,0xCB,0x2C,0x5F,0x53,0x52,0x41,
 0x20,0x4C,0x02,0xCB,0x2D,0x5F,0x53,0x52,
 0x4C,0x20,0x28,0x48,0x4C,0x29,0x02,0xCB,
 0x3E,0x5F,0x53,0x52,0x4C,0x20,0x41,0x02,
 0xCB,0x3F,0x5F,0x53,0x52,0x4C,0x20,0x42,
 0x02,0xCB,0x38,0x5F,0x53,0x52,0x4C,0x20,
 0x43,0x02,0xCB,0x39,0x5F,0x53,0x52,0x4C,
 0x20,0x44,0x02,0xCB,0x3A,0x5F,0x53,0x52,
 0x4C,0x20,0x45,0x02,0xCB,0x3B,0x5F,0x53,
 0x52,0x4C,0x20,0x48,0x02,0xCB,0x3C,0x5F,
 0x53,0x52,0x4C,0x20,0x4C,0x02,0xCB,0x3D,
 0x5F,0x53,0x55,0x42,0x20,0x28,0x49,0x58,
 0x2B,0x23,0x29,0x02,0xDD,0x96,0x5F,0x53,
 0x55,0x42,0x20,0x28,0x49,0x59,0x2B,0x23,
 0x29,0x02,0xFD,0x96,0x5F,0x58,0x4F,0x52,
 0x20,0x28,0x49,0x58,0x2B,0x23,0x29,0x02,
 0xDD,0xAE,0x5F,0x58,0x4F,0x52,0x20,0x28,
 0x49,0x59,0x2B,0x23,0x29,0x02,0xFD,0xAE,
 0x00,0x00,0x00,0x00,0x00,0x00,0x00,0x00,
 0x00,0x00,0x00,0x00,0x00,0x00,0x00,0x00,
 0x00,0x00,0x00,0x00,0x00,0x00,0x00,0x00,
 0x00,0x00,0x00,0x00,0x00,0x00,0x00,0x00,,
